{
  "decisionTransaction": {
    "transactionId": "{{jsonPath request.body '$.decisionTransaction.transactionId'}}",
    "requestTimestamp": "{{jsonPath request.body '$.decisionTransaction.requestTimestamp'}}",
    "decisionType": "{{jsonPath request.body '$.decisionTransaction.decisionType'}}",
    "correlationId": "{{jsonPath request.body '$.decisionTransaction.correlationId'}}",
    "tenantId": "{{jsonPath request.body '$.decisionTransaction.tenantId'}}"
  },
  "decision": {
    "decisionStatus": "NEED_MORE_INFORMATION",
    "decisionTimestamp": "{{jsonPath request.body '$.decisionTransaction.requestTimestamp'}}",
    "decisionPackages": [
      {
        "personId": "{{jsonPath request.body '$.decisionRequest.application.applicants[0].personId'}}",
        "reasons": [
          {
            "reason": "FACTA_REVIEW",
            "reasonCodes": []
          }
        ],
        "identity": {
          "identityVerified": true,
          "mlaStatus": false
        },
        "facta": {
          "extendedFactaAlert": true,
          "phoneMatch": false,
          "bureauPhoneNumber": "1234567891",
          "devicePhoneNumber": "1234567890",
          "alertCode": "alertCode",
          "alertMessage": "alertMessage"
        },
        "creditScoreDetails": null,
        "fraudData": {
          "customerAuthenticationScore": "HIGH",
          "customerIdentityScore": "HIGH"
        },
        "creditData": {
          "G0693S": 1
        }
      }
    ],
    "offers": [],
    "decisionPolicy": {
      "policyId": "policyId",
      "policyVersion": "policyVersion",
      "policyTestCode": "policyTestCode",
      "policyRandomSeed": 50,
      "engineId": "engineId",
      "engineVersion": "engineVersion"
    },
    "decisionData": [
      {
        "personId": "{{jsonPath request.body '$.decisionRequest.application.applicants[0].personId'}}",
        "providerId": "TU",
        "providerName": "TransUnion",
        "providerType": "BUREAU",
        "providerStatus": "SUCCESS",
        "providerTimestamp": "{{jsonPath request.body '$.decisionTransaction.requestTimestamp'}}",
        "providerResponseData": "encryptedstring",
        "parsedProviderData": "parsedProviderData"
      }
    ]
  }
}