{
  "decisionTransaction": {
    "transactionId": "{{jsonPath request.body '$.decisionTransaction.transactionId'}}",
    "requestTimestamp": "{{jsonPath request.body '$.decisionTransaction.requestTimestamp'}}",
    "decisionType": "{{jsonPath request.body '$.decisionTransaction.decisionType'}}",
    "correlationId": "{{jsonPath request.body '$.decisionTransaction.correlationId'}}",
    "tenantId": "{{jsonPath request.body '$.decisionTransaction.tenantId'}}"
  },
  "decision": {
    "decisionStatus": "APPROVED",
    "decisionTimestamp": "{{jsonPath request.body '$.decisionTransaction.requestTimestamp'}}",
    "decisionPackages": [
      {
        "personId": "{{jsonPath request.body '$.decisionRequest.application.applicants[0].personId'}}",
        "reasons": [],
        "identity": {
          "identityVerified": true,
          "mlaStatus": false
        },
        "facta": null,
        "creditScoreDetails": {
          "creditPullDate": "20180402",
          "creditScore": "807",
          "providerId": "TU"
        },
        "fraudData": {
          "customerAuthenticationScore": "HIGH",
          "customerIdentityScore": "HIGH"
        },
        "creditData": {
          "G0693S": 1
        }
      }
    ],
    "offers": [
      {
        "productType": "{{jsonPath request.body '$.decisionRequest.application.products[0].productType'}}",
        "productId": "7131",
        "billingTableId": "10368",
        "creditLine": 2000
      }
    ],
    "decisionPolicy": {
      "policyId": "policyId",
      "policyVersion": "policyVersion",
      "policyTestCode": "policyTestCode",
      "policyRandomSeed": 50,
      "engineId": "engineId",
      "engineVersion": "engineVersion"
    },
    "decisionData": [
      {
        "personId": "{{jsonPath request.body '$.decisionRequest.application.applicants[0].personId'}}",
        "providerId": "TU",
        "providerName": "TransUnion",
        "providerType": "BUREAU",
        "providerCorrelationId": "correlationId",
        "providerTimestamp": "{{jsonPath request.body '$.decisionTransaction.requestTimestamp'}}",
        "providerResponseData": "encryptedstring",
        "parsedProviderData": "parsedProviderData"
      }
    ]
  }
}